…
``` r
# first select the variables that we care about

Long <- all7 %>% pivot_longer(c(a_memorig:g_vote6), names_to = "variable", values_to = "value") %>%
  separate(variable, into = c("Wave", "Variable") , sep = "_", extra = "merge") %>%
  pivot_wider(names_from = Variable, values_from = value)

  
Long
```

    ## # A tibble: 584,234 x 6
    ##        pidp Wave  memorig sex_dv age_dv vote6
    ##       <int> <chr>   <int>  <int>  <int> <int>
    ##  1 68001367 a           1      1     39     3
    ##  2 68001367 b          NA     NA     NA    NA
    ##  3 68001367 c          NA     NA     NA    NA
    ##  4 68001367 d          NA     NA     NA    NA
    ##  5 68001367 e          NA     NA     NA    NA
    ##  6 68001367 f          NA     NA     NA    NA
    ##  7 68001367 g          NA     NA     NA    NA
    ##  8 68004087 a           1      1     59     2
    ##  9 68004087 b           1      1     60     2
    ## 10 68004087 c           1      1     61     2
    ## # ... with 584,224 more rows
…
